# MagicaVoxel @ Ephtracy

# group
g fightplate-1

# material
mtllib fightplate-1.mtl
usemtl palette

# normals
vn -1 0 0
vn 1 0 0
vn 0 0 1
vn 0 0 -1
vn 0 -1 0
vn 0 1 0

# texcoords
vt 0.537109 0.5
vt 0.701172 0.5
vt 0.794922 0.5
vt 0.841797 0.5
vt 0.849609 0.5
vt 0.958984 0.5

# verts
v -20 0 19
v -20 0 -20
v -20 4 -19
v -20 4 -20
v -20 11 -15
v -20 11 -19
v -20 15 20
v -20 15 19
v -20 29 7
v -20 29 -15
v -20 30 20
v -20 30 19
v -20 35 20
v -20 35 19
v -20 38 20
v -20 38 7
v -19 38 15
v -19 38 10
v -19 39 15
v -19 39 10
v -11 0 20
v -11 0 19
v -11 1 19
v -11 35 20
v -11 35 19
v -11 35 17
v -11 36 20
v -11 36 17
v -7 37 14
v -7 37 7
v -7 38 7
v -7 38 -10
v -7 39 9
v -7 39 -8
v -7 40 14
v -7 40 9
v -7 40 -8
v -7 40 -10
v -4 39 5
v -4 39 4
v -4 40 5
v -4 40 4
v -3 29 7
v -3 29 -15
v -3 36 20
v -3 36 19
v -3 37 20
v -3 37 19
v -3 37 -10
v -3 37 -15
v -3 38 7
v -3 38 -10
v -3 39 6
v -3 39 5
v -3 40 6
v -3 40 5
v -2 39 5
v -2 39 3
v -2 40 5
v -2 40 3
v -1 39 -2
v -1 39 -3
v -1 40 -2
v -1 40 -3
v 0 36 18
v 0 36 17
v 0 37 18
v 0 37 17
v 0 39 -1
v 0 39 -2
v 0 39 -3
v 0 39 -4
v 0 40 -1
v 0 40 -2
v 0 40 -3
v 0 40 -4
v 1 11 -15
v 1 11 -18
v 1 37 -15
v 1 37 -18
v 1 39 -2
v 1 39 -3
v 1 40 -2
v 1 40 -3
v 2 4 -19
v 2 4 -20
v 2 11 -18
v 2 11 -19
v 2 37 -18
v 2 37 -20
v 2 39 4
v 2 39 3
v 2 40 4
v 2 40 3
v 3 39 5
v 3 39 4
v 3 39 3
v 3 39 2
v 3 39 -5
v 3 39 -6
v 3 40 5
v 3 40 4
v 3 40 3
v 3 40 2
v 3 40 -5
v 3 40 -6
v 4 39 4
v 4 39 3
v 4 39 -4
v 4 39 -5
v 4 39 -6
v 4 39 -7
v 4 40 4
v 4 40 3
v 4 40 -4
v 4 40 -5
v 4 40 -6
v 4 40 -7
v 5 39 -5
v 5 39 -6
v 5 40 -5
v 5 40 -6
v 11 35 20
v 11 35 16
v 11 36 20
v 11 36 16
v 11 37 13
v 11 37 -6
v 11 38 13
v 11 38 -6
v 13 36 19
v 13 36 18
v 13 37 19
v 13 37 18
v 13 38 11
v 13 38 10
v 13 39 11
v 13 39 10
v 15 38 3
v 15 38 2
v 15 39 3
v 15 39 2
v 16 36 18
v 16 36 17
v 16 37 18
v 16 37 17
v 16 38 -2
v 16 38 -3
v 16 39 -2
v 16 39 -3
v 18 38 12
v 18 38 11
v 18 39 12
v 18 39 11
v -14 37 20
v -14 37 7
v -14 38 20
v -14 38 15
v -14 38 10
v -14 38 7
v -14 39 15
v -14 39 10
v -13 15 20
v -13 15 19
v -13 30 20
v -13 30 19
v -12 35 20
v -12 35 19
v -12 35 17
v -12 37 20
v -12 37 17
v -5 39 5
v -5 39 3
v -5 40 5
v -5 40 3
v -4 36 17
v -4 36 16
v -4 37 17
v -4 37 16
v -4 39 6
v -4 39 5
v -4 40 6
v -4 40 5
v -3 39 5
v -3 39 4
v -3 40 5
v -3 40 4
v -2 36 20
v -2 36 19
v -2 37 20
v -2 37 19
v -2 39 -2
v -2 39 -3
v -2 40 -2
v -2 40 -3
v -1 39 -1
v -1 39 -2
v -1 39 -3
v -1 39 -4
v -1 40 -1
v -1 40 -2
v -1 40 -3
v -1 40 -4
v 0 0 20
v 0 0 19
v 0 1 19
v 0 25 20
v 0 25 19
v 0 39 -2
v 0 39 -3
v 0 40 -2
v 0 40 -3
v 1 36 18
v 1 36 17
v 1 37 18
v 1 37 17
v 1 39 4
v 1 39 3
v 1 40 4
v 1 40 3
v 2 35 20
v 2 35 19
v 2 35 16
v 2 36 20
v 2 36 16
v 2 39 5
v 2 39 4
v 2 39 3
v 2 39 2
v 2 39 -5
v 2 39 -6
v 2 40 5
v 2 40 4
v 2 40 3
v 2 40 2
v 2 40 -5
v 2 40 -6
v 3 39 4
v 3 39 3
v 3 39 -4
v 3 39 -5
v 3 39 -6
v 3 39 -7
v 3 40 4
v 3 40 3
v 3 40 -4
v 3 40 -5
v 3 40 -6
v 3 40 -7
v 4 39 -5
v 4 39 -6
v 4 40 -5
v 4 40 -6
v 5 0 19
v 5 0 18
v 5 1 19
v 5 1 18
v 5 17 19
v 5 17 18
v 10 31 -9
v 10 31 -20
v 10 37 14
v 10 37 -8
v 10 37 -9
v 10 37 -10
v 10 37 -20
v 10 40 14
v 10 40 -10
v 14 36 19
v 14 36 18
v 14 37 19
v 14 37 18
v 14 38 11
v 14 38 10
v 14 39 11
v 14 39 10
v 16 38 3
v 16 38 2
v 16 39 3
v 16 39 2
v 17 36 18
v 17 36 17
v 17 37 18
v 17 37 17
v 17 38 -2
v 17 38 -3
v 17 39 -2
v 17 39 -3
v 19 35 20
v 19 35 16
v 19 36 20
v 19 36 16
v 19 38 12
v 19 38 11
v 19 39 12
v 19 39 11
v 20 0 18
v 20 0 -20
v 20 3 14
v 20 3 -8
v 20 17 19
v 20 17 18
v 20 25 20
v 20 25 19
v 20 30 -11
v 20 30 -20
v 20 31 -9
v 20 31 -11
v 20 31 -20
v 20 35 20
v 20 35 16
v 20 37 16
v 20 37 14
v 20 37 13
v 20 37 -6
v 20 37 -8
v 20 37 -9
v 20 38 13
v 20 38 -6
v -20 15 20
v -20 30 20
v -20 35 20
v -20 38 20
v -14 37 20
v -14 38 20
v -13 15 20
v -13 30 20
v -12 35 20
v -12 37 20
v -11 0 20
v -11 35 20
v -11 36 20
v -3 36 20
v -3 37 20
v -2 36 20
v -2 37 20
v 0 0 20
v 0 25 20
v 2 35 20
v 2 36 20
v 11 35 20
v 11 36 20
v 19 35 20
v 19 36 20
v 20 25 20
v 20 35 20
v -20 0 19
v -20 15 19
v -20 30 19
v -20 35 19
v -16 1 19
v -16 15 19
v -16 30 19
v -16 35 19
v -13 15 19
v -13 30 19
v -12 35 19
v -11 0 19
v -11 1 19
v -11 35 19
v 0 0 19
v 0 1 19
v 0 25 19
v 5 0 19
v 5 1 19
v 5 17 19
v 8 17 19
v 8 25 19
v 13 36 19
v 13 37 19
v 14 36 19
v 14 37 19
v 20 17 19
v 20 25 19
v 0 36 18
v 0 37 18
v 1 36 18
v 1 37 18
v 5 0 18
v 5 1 18
v 5 17 18
v 8 1 18
v 8 17 18
v 16 36 18
v 16 37 18
v 17 36 18
v 17 37 18
v 20 0 18
v 20 17 18
v -12 35 17
v -12 37 17
v -11 35 17
v -11 36 17
v -4 36 17
v -4 37 17
v -4 36 16
v -4 37 16
v 2 35 16
v 2 36 16
v 8 35 16
v 11 35 16
v 11 36 16
v 19 35 16
v 19 36 16
v 20 35 16
v 20 37 16
v -19 38 15
v -19 39 15
v -14 38 15
v -14 39 15
v -7 37 14
v -7 40 14
v 10 37 14
v 10 40 14
v 11 37 13
v 11 38 13
v 20 37 13
v 20 38 13
v 18 38 12
v 18 39 12
v 19 38 12
v 19 39 12
v 13 38 11
v 13 39 11
v 14 38 11
v 14 39 11
v -4 39 5
v -4 40 5
v -3 39 5
v -3 40 5
v 2 39 4
v 2 40 4
v 3 39 4
v 3 40 4
v -5 39 3
v -5 40 3
v -2 39 3
v -2 40 3
v 1 39 3
v 1 40 3
v 2 39 3
v 2 40 3
v 3 39 3
v 3 40 3
v 4 39 3
v 4 40 3
v 15 38 3
v 15 39 3
v 16 38 3
v 16 39 3
v 2 39 2
v 2 40 2
v 3 39 2
v 3 40 2
v -1 39 -2
v -1 40 -2
v 0 39 -2
v 0 40 -2
v 16 38 -2
v 16 39 -2
v 17 38 -2
v 17 39 -2
v -2 39 -3
v -2 40 -3
v -1 39 -3
v -1 40 -3
v 0 39 -3
v 0 40 -3
v 1 39 -3
v 1 40 -3
v -1 39 -4
v -1 40 -4
v 0 39 -4
v 0 40 -4
v 3 39 -5
v 3 40 -5
v 4 39 -5
v 4 40 -5
v 2 39 -6
v 2 40 -6
v 3 39 -6
v 3 40 -6
v 4 39 -6
v 4 40 -6
v 5 39 -6
v 5 40 -6
v 3 39 -7
v 3 40 -7
v 4 39 -7
v 4 40 -7
v -3 36 19
v -3 37 19
v -2 36 19
v -2 37 19
v 13 36 18
v 13 37 18
v 14 36 18
v 14 37 18
v 0 36 17
v 0 37 17
v 1 36 17
v 1 37 17
v 16 36 17
v 16 37 17
v 17 36 17
v 17 37 17
v 18 38 11
v 18 39 11
v 19 38 11
v 19 39 11
v -19 38 10
v -19 39 10
v -14 38 10
v -14 39 10
v 13 38 10
v 13 39 10
v 14 38 10
v 14 39 10
v -20 29 7
v -20 38 7
v -14 37 7
v -14 38 7
v -7 37 7
v -7 38 7
v -3 29 7
v -3 38 7
v -4 39 6
v -4 40 6
v -3 39 6
v -3 40 6
v -5 39 5
v -5 40 5
v -4 39 5
v -4 40 5
v -3 39 5
v -3 40 5
v -2 39 5
v -2 40 5
v 2 39 5
v 2 40 5
v 3 39 5
v 3 40 5
v -4 39 4
v -4 40 4
v -3 39 4
v -3 40 4
v 1 39 4
v 1 40 4
v 2 39 4
v 2 40 4
v 3 39 4
v 3 40 4
v 4 39 4
v 4 40 4
v 2 39 3
v 2 40 3
v 3 39 3
v 3 40 3
v 15 38 2
v 15 39 2
v 16 38 2
v 16 39 2
v -1 39 -1
v -1 40 -1
v 0 39 -1
v 0 40 -1
v -2 39 -2
v -2 40 -2
v -1 39 -2
v -1 40 -2
v 0 39 -2
v 0 40 -2
v 1 39 -2
v 1 40 -2
v -1 39 -3
v -1 40 -3
v 0 39 -3
v 0 40 -3
v 16 38 -3
v 16 39 -3
v 17 38 -3
v 17 39 -3
v 3 39 -4
v 3 40 -4
v 4 39 -4
v 4 40 -4
v 2 39 -5
v 2 40 -5
v 3 39 -5
v 3 40 -5
v 4 39 -5
v 4 40 -5
v 5 39 -5
v 5 40 -5
v 3 39 -6
v 3 40 -6
v 4 39 -6
v 4 40 -6
v 11 37 -6
v 11 38 -6
v 20 37 -6
v 20 38 -6
v 10 31 -9
v 10 37 -9
v 20 31 -9
v 20 37 -9
v -7 38 -10
v -7 40 -10
v -3 37 -10
v -3 38 -10
v 10 37 -10
v 10 40 -10
v -20 11 -15
v -20 29 -15
v -15 28 -15
v -15 29 -15
v -6 28 -15
v -6 29 -15
v -3 29 -15
v -3 37 -15
v 1 11 -15
v 1 37 -15
v 1 11 -18
v 1 37 -18
v 2 11 -18
v 2 37 -18
v -20 4 -19
v -20 11 -19
v 2 4 -19
v 2 11 -19
v -20 0 -20
v -20 4 -20
v 2 4 -20
v 2 37 -20
v 4 11 -20
v 4 29 -20
v 10 11 -20
v 10 29 -20
v 10 31 -20
v 10 37 -20
v 11 30 -20
v 11 31 -20
v 13 12 -20
v 13 28 -20
v 19 12 -20
v 19 28 -20
v 20 0 -20
v 20 30 -20
v 20 31 -20
v -11 0 20
v 0 0 20
v -20 0 19
v -11 0 19
v 0 0 19
v 5 0 19
v 5 0 18
v 20 0 18
v -20 0 -20
v 20 0 -20
v -20 15 20
v -13 15 20
v -20 15 19
v -16 15 19
v -13 15 19
v 5 17 19
v 8 17 19
v 20 17 19
v 5 17 18
v 8 17 18
v 20 17 18
v 0 25 20
v 20 25 20
v 0 25 19
v 8 25 19
v 20 25 19
v -20 35 20
v -12 35 20
v -20 35 19
v -16 35 19
v -12 35 19
v -7 38 7
v -3 38 7
v -7 38 -10
v -3 38 -10
v -20 4 -19
v 2 4 -19
v -20 4 -20
v 2 4 -20
v -20 11 -15
v 1 11 -15
v 1 11 -18
v 2 11 -18
v -20 11 -19
v 2 11 -19
v -20 29 7
v -3 29 7
v -15 29 5
v -6 29 5
v -20 29 -15
v -15 29 -15
v -6 29 -15
v -3 29 -15
v -20 30 20
v -13 30 20
v -20 30 19
v -16 30 19
v -13 30 19
v 10 31 -9
v 20 31 -9
v 11 31 -11
v 20 31 -11
v 10 31 -20
v 11 31 -20
v 20 31 -20
v 2 35 20
v 11 35 20
v 19 35 20
v 20 35 20
v -12 35 19
v -11 35 19
v 2 35 19
v 8 35 19
v -12 35 17
v -11 35 17
v 2 35 16
v 8 35 16
v 11 35 16
v 19 35 16
v 20 35 16
v -11 36 20
v -3 36 20
v -2 36 20
v 2 36 20
v 11 36 20
v 19 36 20
v -3 36 19
v -2 36 19
v 13 36 19
v 14 36 19
v 0 36 18
v 1 36 18
v 13 36 18
v 14 36 18
v 16 36 18
v 17 36 18
v -11 36 17
v -4 36 17
v 0 36 17
v 1 36 17
v 16 36 17
v 17 36 17
v -4 36 16
v 2 36 16
v 11 36 16
v 19 36 16
v -14 37 20
v -12 37 20
v -3 37 20
v -2 37 20
v -3 37 19
v -2 37 19
v 13 37 19
v 14 37 19
v 0 37 18
v 1 37 18
v 13 37 18
v 14 37 18
v 16 37 18
v 17 37 18
v -12 37 17
v -4 37 17
v 0 37 17
v 1 37 17
v 16 37 17
v 17 37 17
v -4 37 16
v 20 37 16
v -12 37 15
v -9 37 15
v -7 37 14
v 10 37 14
v 20 37 14
v 11 37 13
v 20 37 13
v -12 37 9
v -9 37 9
v -14 37 7
v -7 37 7
v 11 37 -6
v 20 37 -6
v 10 37 -8
v 20 37 -8
v 10 37 -9
v 20 37 -9
v -3 37 -10
v 10 37 -10
v -3 37 -15
v 1 37 -15
v 1 37 -18
v 2 37 -18
v 2 37 -20
v 10 37 -20
v -20 38 20
v -14 38 20
v -19 38 15
v -14 38 15
v 11 38 13
v 20 38 13
v 18 38 12
v 19 38 12
v 13 38 11
v 14 38 11
v 18 38 11
v 19 38 11
v -19 38 10
v -14 38 10
v 13 38 10
v 14 38 10
v -20 38 7
v -14 38 7
v 15 38 3
v 16 38 3
v 15 38 2
v 16 38 2
v 16 38 -2
v 17 38 -2
v 16 38 -3
v 17 38 -3
v 11 38 -6
v 20 38 -6
v -19 39 15
v -14 39 15
v 18 39 12
v 19 39 12
v 13 39 11
v 14 39 11
v 18 39 11
v 19 39 11
v -19 39 10
v -14 39 10
v 13 39 10
v 14 39 10
v -4 39 6
v -3 39 6
v -5 39 5
v -4 39 5
v -3 39 5
v -2 39 5
v 2 39 5
v 3 39 5
v -4 39 4
v -3 39 4
v 1 39 4
v 2 39 4
v 3 39 4
v 4 39 4
v -5 39 3
v -2 39 3
v 1 39 3
v 2 39 3
v 3 39 3
v 4 39 3
v 15 39 3
v 16 39 3
v 2 39 2
v 3 39 2
v 15 39 2
v 16 39 2
v -1 39 -1
v 0 39 -1
v -2 39 -2
v -1 39 -2
v 0 39 -2
v 1 39 -2
v 16 39 -2
v 17 39 -2
v -2 39 -3
v -1 39 -3
v 0 39 -3
v 1 39 -3
v 16 39 -3
v 17 39 -3
v -1 39 -4
v 0 39 -4
v 3 39 -4
v 4 39 -4
v 2 39 -5
v 3 39 -5
v 4 39 -5
v 5 39 -5
v 2 39 -6
v 3 39 -6
v 4 39 -6
v 5 39 -6
v 3 39 -7
v 4 39 -7
v -7 40 14
v 10 40 14
v -7 40 9
v 7 40 9
v 5 40 7
v 6 40 7
v -4 40 6
v -3 40 6
v 5 40 6
v 6 40 6
v -5 40 5
v -4 40 5
v -3 40 5
v -2 40 5
v 2 40 5
v 3 40 5
v -4 40 4
v -3 40 4
v 1 40 4
v 2 40 4
v 3 40 4
v 4 40 4
v -5 40 3
v -2 40 3
v 1 40 3
v 2 40 3
v 3 40 3
v 4 40 3
v 2 40 2
v 3 40 2
v -1 40 -1
v 0 40 -1
v -2 40 -2
v -1 40 -2
v 0 40 -2
v 1 40 -2
v -2 40 -3
v -1 40 -3
v 0 40 -3
v 1 40 -3
v -1 40 -4
v 0 40 -4
v 3 40 -4
v 4 40 -4
v 2 40 -5
v 3 40 -5
v 4 40 -5
v 5 40 -5
v 2 40 -6
v 3 40 -6
v 4 40 -6
v 5 40 -6
v 3 40 -7
v 4 40 -7
v -7 40 -8
v 7 40 -8
v -7 40 -10
v 10 40 -10

# faces
f 3/2/1 2/2/1 1/2/1
f 4/2/1 2/2/1 3/2/1
f 5/2/1 3/2/1 1/2/1
f 6/2/1 3/2/1 5/2/1
f 8/2/1 5/2/1 1/2/1
f 9/2/1 5/2/1 8/2/1
f 10/2/1 5/2/1 9/2/1
f 11/3/1 8/3/1 7/3/1
f 12/2/1 9/2/1 8/2/1
f 12/3/1 8/3/1 11/3/1
f 14/2/1 9/2/1 12/2/1
f 15/2/1 14/2/1 13/2/1
f 16/2/1 9/2/1 14/2/1
f 16/2/1 14/2/1 15/2/1
f 19/3/1 18/3/1 17/3/1
f 20/3/1 18/3/1 19/3/1
f 23/2/1 22/2/1 21/2/1
f 24/2/1 23/2/1 21/2/1
f 25/2/1 23/2/1 24/2/1
f 27/3/1 25/3/1 24/3/1
f 27/3/1 26/3/1 25/3/1
f 28/3/1 26/3/1 27/3/1
f 31/2/1 30/2/1 29/2/1
f 33/2/1 31/2/1 29/2/1
f 33/2/1 32/2/1 31/2/1
f 34/2/1 32/2/1 33/2/1
f 35/2/1 33/2/1 29/2/1
f 36/3/1 34/3/1 33/3/1
f 36/2/1 33/2/1 35/2/1
f 37/2/1 32/2/1 34/2/1
f 37/3/1 34/3/1 36/3/1
f 38/2/1 32/2/1 37/2/1
f 41/6/1 40/6/1 39/6/1
f 42/6/1 40/6/1 41/6/1
f 47/6/1 46/6/1 45/6/1
f 48/6/1 46/6/1 47/6/1
f 49/2/1 44/2/1 43/2/1
f 50/2/1 44/2/1 49/2/1
f 51/2/1 49/2/1 43/2/1
f 52/2/1 49/2/1 51/2/1
f 55/3/1 54/3/1 53/3/1
f 56/3/1 54/3/1 55/3/1
f 59/3/1 58/3/1 57/3/1
f 60/3/1 58/3/1 59/3/1
f 63/4/1 62/4/1 61/4/1
f 64/4/1 62/4/1 63/4/1
f 67/5/1 66/5/1 65/5/1
f 68/5/1 66/5/1 67/5/1
f 73/3/1 70/3/1 69/3/1
f 74/3/1 70/3/1 73/3/1
f 75/3/1 72/3/1 71/3/1
f 76/3/1 72/3/1 75/3/1
f 79/2/1 78/2/1 77/2/1
f 80/2/1 78/2/1 79/2/1
f 83/3/1 82/3/1 81/3/1
f 84/3/1 82/3/1 83/3/1
f 88/2/1 86/2/1 85/2/1
f 89/2/1 88/2/1 87/2/1
f 90/2/1 86/2/1 88/2/1
f 90/2/1 88/2/1 89/2/1
f 93/4/1 92/4/1 91/4/1
f 94/4/1 92/4/1 93/4/1
f 101/3/1 96/3/1 95/3/1
f 102/3/1 96/3/1 101/3/1
f 103/3/1 98/3/1 97/3/1
f 104/3/1 98/3/1 103/3/1
f 105/6/1 100/6/1 99/6/1
f 106/6/1 100/6/1 105/6/1
f 113/3/1 108/3/1 107/3/1
f 114/3/1 108/3/1 113/3/1
f 115/3/1 110/3/1 109/3/1
f 116/3/1 110/3/1 115/3/1
f 117/3/1 112/3/1 111/3/1
f 118/3/1 112/3/1 117/3/1
f 121/3/1 120/3/1 119/3/1
f 122/3/1 120/3/1 121/3/1
f 125/3/1 124/3/1 123/3/1
f 126/3/1 124/3/1 125/3/1
f 129/3/1 128/3/1 127/3/1
f 130/3/1 128/3/1 129/3/1
f 133/5/1 132/5/1 131/5/1
f 134/5/1 132/5/1 133/5/1
f 137/5/1 136/5/1 135/5/1
f 138/5/1 136/5/1 137/5/1
f 141/6/1 140/6/1 139/6/1
f 142/6/1 140/6/1 141/6/1
f 145/6/1 144/6/1 143/6/1
f 146/6/1 144/6/1 145/6/1
f 149/5/1 148/5/1 147/5/1
f 150/5/1 148/5/1 149/5/1
f 153/5/1 152/5/1 151/5/1
f 154/5/1 152/5/1 153/5/1
f 155/2/2 156/2/2 157/2/2
f 157/2/2 156/2/2 158/2/2
f 158/2/2 156/2/2 159/2/2
f 159/2/2 156/2/2 160/2/2
f 158/3/2 159/3/2 161/3/2
f 161/3/2 159/3/2 162/3/2
f 163/3/2 164/3/2 165/3/2
f 165/3/2 164/3/2 166/3/2
f 167/2/2 168/2/2 170/2/2
f 168/2/2 169/2/2 170/2/2
f 170/2/2 169/2/2 171/2/2
f 172/3/2 173/3/2 174/3/2
f 174/3/2 173/3/2 175/3/2
f 176/2/2 177/2/2 178/2/2
f 178/2/2 177/2/2 179/2/2
f 180/3/2 181/3/2 182/3/2
f 182/3/2 181/3/2 183/3/2
f 184/6/2 185/6/2 186/6/2
f 186/6/2 185/6/2 187/6/2
f 188/6/2 189/6/2 190/6/2
f 190/6/2 189/6/2 191/6/2
f 192/3/2 193/3/2 194/3/2
f 194/3/2 193/3/2 195/3/2
f 196/3/2 197/3/2 200/3/2
f 200/3/2 197/3/2 201/3/2
f 198/3/2 199/3/2 202/3/2
f 202/3/2 199/3/2 203/3/2
f 204/2/2 205/2/2 206/2/2
f 204/2/2 206/2/2 207/2/2
f 207/2/2 206/2/2 208/2/2
f 209/4/2 210/4/2 211/4/2
f 211/4/2 210/4/2 212/4/2
f 213/5/2 214/5/2 215/5/2
f 215/5/2 214/5/2 216/5/2
f 217/3/2 218/3/2 219/3/2
f 219/3/2 218/3/2 220/3/2
f 221/3/2 222/3/2 224/3/2
f 222/3/2 223/3/2 224/3/2
f 224/3/2 223/3/2 225/3/2
f 226/3/2 227/3/2 232/3/2
f 232/3/2 227/3/2 233/3/2
f 228/3/2 229/3/2 234/3/2
f 234/3/2 229/3/2 235/3/2
f 230/3/2 231/3/2 236/3/2
f 236/3/2 231/3/2 237/3/2
f 238/4/2 239/4/2 244/4/2
f 244/4/2 239/4/2 245/4/2
f 240/3/2 241/3/2 246/3/2
f 246/3/2 241/3/2 247/3/2
f 242/3/2 243/3/2 248/3/2
f 248/3/2 243/3/2 249/3/2
f 250/6/2 251/6/2 252/6/2
f 252/6/2 251/6/2 253/6/2
f 254/2/2 255/2/2 256/2/2
f 256/2/2 255/2/2 257/2/2
f 256/1/2 257/1/2 258/1/2
f 258/1/2 257/1/2 259/1/2
f 260/2/2 261/2/2 264/2/2
f 264/2/2 261/2/2 265/2/2
f 265/2/2 261/2/2 266/2/2
f 262/2/2 263/2/2 267/2/2
f 263/2/2 264/2/2 267/2/2
f 264/2/2 265/2/2 267/2/2
f 267/2/2 265/2/2 268/2/2
f 269/5/2 270/5/2 271/5/2
f 271/5/2 270/5/2 272/5/2
f 273/5/2 274/5/2 275/5/2
f 275/5/2 274/5/2 276/5/2
f 277/6/2 278/6/2 279/6/2
f 279/6/2 278/6/2 280/6/2
f 281/6/2 282/6/2 283/6/2
f 283/6/2 282/6/2 284/6/2
f 285/5/2 286/5/2 287/5/2
f 287/5/2 286/5/2 288/5/2
f 289/3/2 290/3/2 291/3/2
f 291/3/2 290/3/2 292/3/2
f 293/5/2 294/5/2 295/5/2
f 295/5/2 294/5/2 296/5/2
f 297/2/2 298/2/2 299/2/2
f 299/2/2 298/2/2 300/2/2
f 297/2/2 299/2/2 302/2/2
f 301/2/2 302/2/2 304/2/2
f 300/2/2 298/2/2 305/2/2
f 305/2/2 298/2/2 306/2/2
f 300/2/2 305/2/2 307/2/2
f 305/1/2 306/1/2 308/1/2
f 307/2/2 305/2/2 308/2/2
f 308/1/2 306/1/2 309/1/2
f 303/2/2 304/2/2 310/2/2
f 302/2/2 299/2/2 311/2/2
f 310/2/2 304/2/2 311/2/2
f 304/2/2 302/2/2 311/2/2
f 311/2/2 299/2/2 312/2/2
f 299/1/2 300/1/2 313/1/2
f 312/2/2 299/2/2 313/2/2
f 313/1/2 300/1/2 314/1/2
f 314/1/2 300/1/2 315/1/2
f 300/2/2 307/2/2 316/2/2
f 315/1/2 300/1/2 316/1/2
f 316/2/2 307/2/2 317/2/2
f 314/3/2 315/3/2 318/3/2
f 318/3/2 315/3/2 319/3/2
f 324/2/3 323/2/3 322/2/3
f 325/2/3 323/2/3 324/2/3
f 326/3/3 321/3/3 320/3/3
f 327/3/3 321/3/3 326/3/3
f 328/2/3 324/2/3 322/2/3
f 329/2/3 324/2/3 328/2/3
f 333/3/3 332/3/3 331/3/3
f 335/3/3 333/3/3 331/3/3
f 335/6/3 334/6/3 333/6/3
f 336/6/3 334/6/3 335/6/3
f 337/2/3 331/2/3 330/2/3
f 338/2/3 331/2/3 337/2/3
f 339/3/3 335/3/3 331/3/3
f 339/2/3 331/2/3 338/2/3
f 340/3/3 335/3/3 339/3/3
f 341/2/3 339/2/3 338/2/3
f 343/2/3 341/2/3 338/2/3
f 343/3/3 342/3/3 341/3/3
f 344/3/3 342/3/3 343/3/3
f 345/2/3 343/2/3 338/2/3
f 346/2/3 343/2/3 345/2/3
f 351/2/3 348/2/3 347/2/3
f 352/2/3 348/2/3 351/2/3
f 353/2/3 350/2/3 349/2/3
f 354/2/3 350/2/3 353/2/3
f 355/1/3 352/1/3 351/1/3
f 356/1/3 354/1/3 353/1/3
f 357/1/3 354/1/3 356/1/3
f 357/1/3 356/1/3 355/1/3
f 358/2/3 351/2/3 347/2/3
f 359/1/3 355/1/3 351/1/3
f 359/2/3 351/2/3 358/2/3
f 359/1/3 357/1/3 355/1/3
f 360/1/3 357/1/3 359/1/3
f 364/2/3 362/2/3 361/2/3
f 365/1/3 363/1/3 362/1/3
f 365/2/3 362/2/3 364/2/3
f 366/1/3 363/1/3 365/1/3
f 367/1/3 363/1/3 366/1/3
f 368/1/3 363/1/3 367/1/3
f 371/5/3 370/5/3 369/5/3
f 372/5/3 370/5/3 371/5/3
f 373/2/3 368/2/3 367/2/3
f 374/2/3 368/2/3 373/2/3
f 377/5/3 376/5/3 375/5/3
f 378/5/3 376/5/3 377/5/3
f 382/2/3 380/2/3 379/2/3
f 382/1/3 381/1/3 380/1/3
f 383/1/3 381/1/3 382/1/3
f 386/6/3 385/6/3 384/6/3
f 387/6/3 385/6/3 386/6/3
f 388/2/3 382/2/3 379/2/3
f 388/2/3 383/2/3 382/2/3
f 389/2/3 383/2/3 388/2/3
f 392/2/3 391/2/3 390/2/3
f 393/2/3 391/2/3 392/2/3
f 394/2/3 391/2/3 393/2/3
f 395/2/3 391/2/3 394/2/3
f 399/2/3 397/2/3 396/2/3
f 400/2/3 399/2/3 398/2/3
f 401/2/3 399/2/3 400/2/3
f 402/2/3 397/2/3 399/2/3
f 402/2/3 399/2/3 401/2/3
f 404/2/3 397/2/3 402/2/3
f 405/2/3 404/2/3 403/2/3
f 406/2/3 397/2/3 404/2/3
f 406/2/3 404/2/3 405/2/3
f 409/3/3 408/3/3 407/3/3
f 410/3/3 408/3/3 409/3/3
f 413/2/3 412/2/3 411/2/3
f 414/2/3 412/2/3 413/2/3
f 417/3/3 416/3/3 415/3/3
f 418/3/3 416/3/3 417/3/3
f 421/5/3 420/5/3 419/5/3
f 422/5/3 420/5/3 421/5/3
f 425/5/3 424/5/3 423/5/3
f 426/5/3 424/5/3 425/5/3
f 429/6/3 428/6/3 427/6/3
f 430/6/3 428/6/3 429/6/3
f 433/4/3 432/4/3 431/4/3
f 434/4/3 432/4/3 433/4/3
f 437/3/3 436/3/3 435/3/3
f 438/3/3 436/3/3 437/3/3
f 441/3/3 440/3/3 439/3/3
f 442/3/3 440/3/3 441/3/3
f 445/3/3 444/3/3 443/3/3
f 446/3/3 444/3/3 445/3/3
f 449/6/3 448/6/3 447/6/3
f 450/6/3 448/6/3 449/6/3
f 453/3/3 452/3/3 451/3/3
f 454/3/3 452/3/3 453/3/3
f 457/4/3 456/4/3 455/4/3
f 458/4/3 456/4/3 457/4/3
f 461/5/3 460/5/3 459/5/3
f 462/5/3 460/5/3 461/5/3
f 465/3/3 464/3/3 463/3/3
f 466/3/3 464/3/3 465/3/3
f 469/3/3 468/3/3 467/3/3
f 470/3/3 468/3/3 469/3/3
f 473/3/3 472/3/3 471/3/3
f 474/3/3 472/3/3 473/3/3
f 477/6/3 476/6/3 475/6/3
f 478/6/3 476/6/3 477/6/3
f 481/3/3 480/3/3 479/3/3
f 482/3/3 480/3/3 481/3/3
f 485/3/3 484/3/3 483/3/3
f 486/3/3 484/3/3 485/3/3
f 489/3/3 488/3/3 487/3/3
f 490/3/3 488/3/3 489/3/3
f 491/6/4 492/6/4 493/6/4
f 493/6/4 492/6/4 494/6/4
f 495/5/4 496/5/4 497/5/4
f 497/5/4 496/5/4 498/5/4
f 499/5/4 500/5/4 501/5/4
f 501/5/4 500/5/4 502/5/4
f 503/6/4 504/6/4 505/6/4
f 505/6/4 504/6/4 506/6/4
f 507/5/4 508/5/4 509/5/4
f 509/5/4 508/5/4 510/5/4
f 511/3/4 512/3/4 513/3/4
f 513/3/4 512/3/4 514/3/4
f 515/5/4 516/5/4 517/5/4
f 517/5/4 516/5/4 518/5/4
f 519/2/4 520/2/4 521/2/4
f 521/2/4 520/2/4 522/2/4
f 519/2/4 521/2/4 523/2/4
f 519/2/4 523/2/4 525/2/4
f 523/2/4 524/2/4 525/2/4
f 525/2/4 524/2/4 526/2/4
f 527/3/4 528/3/4 529/3/4
f 529/3/4 528/3/4 530/3/4
f 531/3/4 532/3/4 533/3/4
f 533/3/4 532/3/4 534/3/4
f 535/3/4 536/3/4 537/3/4
f 537/3/4 536/3/4 538/3/4
f 539/3/4 540/3/4 541/3/4
f 541/3/4 540/3/4 542/3/4
f 543/6/4 544/6/4 545/6/4
f 545/6/4 544/6/4 546/6/4
f 547/3/4 548/3/4 549/3/4
f 549/3/4 548/3/4 550/3/4
f 551/3/4 552/3/4 553/3/4
f 553/3/4 552/3/4 554/3/4
f 555/4/4 556/4/4 557/4/4
f 557/4/4 556/4/4 558/4/4
f 559/6/4 560/6/4 561/6/4
f 561/6/4 560/6/4 562/6/4
f 563/3/4 564/3/4 565/3/4
f 565/3/4 564/3/4 566/3/4
f 567/3/4 568/3/4 569/3/4
f 569/3/4 568/3/4 570/3/4
f 571/3/4 572/3/4 573/3/4
f 573/3/4 572/3/4 574/3/4
f 575/4/4 576/4/4 577/4/4
f 577/4/4 576/4/4 578/4/4
f 579/5/4 580/5/4 581/5/4
f 581/5/4 580/5/4 582/5/4
f 583/3/4 584/3/4 585/3/4
f 585/3/4 584/3/4 586/3/4
f 587/3/4 588/3/4 589/3/4
f 589/3/4 588/3/4 590/3/4
f 591/3/4 592/3/4 593/3/4
f 593/3/4 592/3/4 594/3/4
f 595/6/4 596/6/4 597/6/4
f 597/6/4 596/6/4 598/6/4
f 599/3/4 600/3/4 601/3/4
f 601/3/4 600/3/4 602/3/4
f 603/2/4 604/2/4 605/2/4
f 605/2/4 604/2/4 606/2/4
f 607/2/4 608/2/4 610/2/4
f 609/2/4 610/2/4 611/2/4
f 610/2/4 608/2/4 612/2/4
f 611/2/4 610/2/4 612/2/4
f 613/2/4 614/2/4 615/2/4
f 615/2/4 614/2/4 616/2/4
f 613/2/4 615/2/4 617/2/4
f 615/1/4 616/1/4 617/1/4
f 617/1/4 616/1/4 618/1/4
f 617/2/4 618/2/4 619/2/4
f 617/2/4 619/2/4 621/2/4
f 619/2/4 620/2/4 621/2/4
f 613/2/4 617/2/4 621/2/4
f 621/2/4 620/2/4 622/2/4
f 623/2/4 624/2/4 625/2/4
f 625/2/4 624/2/4 626/2/4
f 627/2/4 628/2/4 629/2/4
f 629/2/4 628/2/4 630/2/4
f 631/2/4 632/2/4 633/2/4
f 633/2/4 634/2/4 635/2/4
f 635/2/4 634/2/4 636/2/4
f 633/2/4 635/2/4 637/2/4
f 635/1/4 636/1/4 637/1/4
f 636/2/4 634/2/4 638/2/4
f 637/1/4 636/1/4 638/1/4
f 638/2/4 634/2/4 639/2/4
f 639/2/4 634/2/4 640/2/4
f 637/2/4 638/2/4 641/2/4
f 638/2/4 639/2/4 641/2/4
f 641/2/4 639/2/4 642/2/4
f 637/2/4 641/2/4 643/2/4
f 643/2/4 641/2/4 644/2/4
f 637/2/4 643/2/4 645/2/4
f 643/1/4 644/1/4 645/1/4
f 644/2/4 641/2/4 646/2/4
f 645/1/4 644/1/4 646/1/4
f 631/2/4 633/2/4 647/2/4
f 633/2/4 637/2/4 647/2/4
f 645/2/4 646/2/4 647/2/4
f 637/2/4 645/2/4 647/2/4
f 646/2/4 641/2/4 648/2/4
f 647/2/4 646/2/4 648/2/4
f 641/1/4 642/1/4 648/1/4
f 648/1/4 642/1/4 649/1/4
f 653/2/5 651/2/5 650/2/5
f 654/2/5 651/2/5 653/2/5
f 656/2/5 653/2/5 652/2/5
f 656/2/5 655/2/5 654/2/5
f 656/2/5 654/2/5 653/2/5
f 658/2/5 656/2/5 652/2/5
f 658/2/5 657/2/5 656/2/5
f 659/2/5 657/2/5 658/2/5
f 662/3/5 661/3/5 660/3/5
f 663/3/5 661/3/5 662/3/5
f 664/3/5 661/3/5 663/3/5
f 668/1/5 666/1/5 665/1/5
f 669/2/5 667/2/5 666/2/5
f 669/1/5 666/1/5 668/1/5
f 670/2/5 667/2/5 669/2/5
f 673/2/5 672/2/5 671/2/5
f 674/2/5 672/2/5 673/2/5
f 675/2/5 672/2/5 674/2/5
f 678/2/5 677/2/5 676/2/5
f 679/2/5 677/2/5 678/2/5
f 680/2/5 677/2/5 679/2/5
f 683/2/5 682/2/5 681/2/5
f 684/2/5 682/2/5 683/2/5
f 685/2/6 686/2/6 687/2/6
f 687/2/6 686/2/6 688/2/6
f 689/2/6 690/2/6 691/2/6
f 689/2/6 691/2/6 693/2/6
f 691/2/6 692/2/6 693/2/6
f 693/2/6 692/2/6 694/2/6
f 695/2/6 696/2/6 697/2/6
f 697/2/6 696/2/6 698/2/6
f 695/2/6 697/2/6 699/2/6
f 697/1/6 698/1/6 700/1/6
f 699/2/6 697/2/6 700/2/6
f 698/2/6 696/2/6 701/2/6
f 700/1/6 698/1/6 701/1/6
f 701/2/6 696/2/6 702/2/6
f 703/3/6 704/3/6 705/3/6
f 705/3/6 704/3/6 706/3/6
f 706/3/6 704/3/6 707/3/6
f 708/2/6 709/2/6 710/2/6
f 710/2/6 709/2/6 711/2/6
f 708/2/6 710/2/6 712/2/6
f 710/1/6 711/1/6 713/1/6
f 712/2/6 710/2/6 713/2/6
f 713/1/6 711/1/6 714/1/6
f 715/2/6 716/2/6 721/2/6
f 721/2/6 716/2/6 722/2/6
f 719/1/6 720/1/6 723/1/6
f 723/1/6 720/1/6 724/1/6
f 721/1/6 722/1/6 725/1/6
f 722/2/6 716/2/6 726/2/6
f 725/1/6 722/1/6 726/1/6
f 726/2/6 716/2/6 727/2/6
f 717/2/6 718/2/6 728/2/6
f 728/2/6 718/2/6 729/2/6
f 730/3/6 731/3/6 736/3/6
f 732/3/6 733/3/6 737/3/6
f 734/3/6 735/3/6 738/3/6
f 738/3/6 735/3/6 739/3/6
f 736/3/6 737/3/6 740/3/6
f 737/3/6 733/3/6 740/3/6
f 740/3/6 733/3/6 741/3/6
f 734/3/6 738/3/6 742/3/6
f 739/3/6 735/3/6 743/3/6
f 743/3/6 735/3/6 744/3/6
f 744/3/6 735/3/6 745/3/6
f 730/3/6 736/3/6 746/3/6
f 736/3/6 740/3/6 746/3/6
f 746/3/6 740/3/6 747/3/6
f 747/3/6 740/3/6 748/3/6
f 741/3/6 733/3/6 749/3/6
f 743/3/6 744/3/6 750/3/6
f 742/3/6 743/3/6 750/3/6
f 745/3/6 735/3/6 751/3/6
f 747/3/6 748/3/6 752/3/6
f 748/3/6 749/3/6 752/3/6
f 749/3/6 733/3/6 753/3/6
f 752/3/6 749/3/6 753/3/6
f 734/3/6 742/3/6 754/3/6
f 742/3/6 750/3/6 754/3/6
f 750/3/6 751/3/6 754/3/6
f 751/3/6 735/3/6 755/3/6
f 754/3/6 751/3/6 755/3/6
f 758/6/6 759/6/6 760/6/6
f 760/6/6 759/6/6 761/6/6
f 762/5/6 763/5/6 766/5/6
f 766/5/6 763/5/6 767/5/6
f 756/2/6 757/2/6 770/2/6
f 764/5/6 765/5/6 772/5/6
f 772/5/6 765/5/6 773/5/6
f 768/6/6 769/6/6 774/6/6
f 774/6/6 769/6/6 775/6/6
f 770/2/6 771/2/6 776/2/6
f 770/2/6 776/2/6 778/2/6
f 776/2/6 777/2/6 778/2/6
f 756/2/6 770/2/6 778/2/6
f 778/2/6 777/2/6 779/2/6
f 779/2/6 777/2/6 780/2/6
f 780/2/6 777/2/6 781/2/6
f 781/2/6 777/2/6 782/2/6
f 781/1/6 782/1/6 783/1/6
f 783/1/6 782/1/6 784/1/6
f 756/2/6 778/2/6 785/2/6
f 778/1/6 779/1/6 785/1/6
f 779/2/6 780/2/6 786/2/6
f 785/1/6 779/1/6 786/1/6
f 756/2/6 785/2/6 787/2/6
f 785/2/6 786/2/6 787/2/6
f 786/2/6 780/2/6 788/2/6
f 787/2/6 786/2/6 788/2/6
f 781/1/6 783/1/6 789/1/6
f 781/1/6 789/1/6 791/1/6
f 789/1/6 790/1/6 791/1/6
f 791/1/6 790/1/6 792/1/6
f 791/2/6 792/2/6 793/2/6
f 793/2/6 792/2/6 794/2/6
f 795/2/6 796/2/6 797/2/6
f 797/2/6 796/2/6 798/2/6
f 798/2/6 796/2/6 799/2/6
f 799/2/6 796/2/6 800/2/6
f 800/2/6 796/2/6 801/2/6
f 801/2/6 796/2/6 802/2/6
f 803/2/6 804/2/6 805/2/6
f 805/2/6 804/2/6 806/2/6
f 807/3/6 808/3/6 809/3/6
f 809/3/6 808/3/6 810/3/6
f 807/3/6 809/3/6 811/3/6
f 811/3/6 809/3/6 812/3/6
f 812/3/6 809/3/6 813/3/6
f 810/3/6 808/3/6 814/3/6
f 803/2/6 805/2/6 815/2/6
f 807/3/6 811/3/6 817/3/6
f 813/3/6 814/3/6 818/3/6
f 812/3/6 813/3/6 818/3/6
f 803/2/6 815/2/6 819/2/6
f 815/2/6 816/2/6 819/2/6
f 819/2/6 816/2/6 820/2/6
f 817/3/6 818/3/6 821/3/6
f 818/3/6 814/3/6 821/3/6
f 821/3/6 814/3/6 822/3/6
f 817/3/6 821/3/6 823/3/6
f 822/3/6 814/3/6 824/3/6
f 824/3/6 814/3/6 825/3/6
f 823/3/6 824/3/6 825/3/6
f 825/3/6 814/3/6 826/3/6
f 823/3/6 825/3/6 827/3/6
f 826/3/6 814/3/6 828/3/6
f 807/3/6 817/3/6 829/3/6
f 827/3/6 828/3/6 829/3/6
f 817/3/6 823/3/6 829/3/6
f 823/3/6 827/3/6 829/3/6
f 828/3/6 814/3/6 830/3/6
f 829/3/6 828/3/6 830/3/6
f 814/3/6 808/3/6 830/3/6
f 833/5/6 834/5/6 837/5/6
f 837/5/6 834/5/6 838/5/6
f 831/3/6 832/3/6 839/3/6
f 839/3/6 832/3/6 840/3/6
f 835/5/6 836/5/6 841/5/6
f 841/5/6 836/5/6 842/5/6
f 843/2/6 844/2/6 846/2/6
f 846/2/6 844/2/6 847/2/6
f 845/2/6 846/2/6 851/2/6
f 847/2/6 848/2/6 852/2/6
f 849/2/6 850/2/6 854/2/6
f 854/2/6 850/2/6 855/2/6
f 851/2/6 852/2/6 857/2/6
f 845/2/6 851/2/6 857/2/6
f 852/2/6 848/2/6 858/2/6
f 857/2/6 852/2/6 858/2/6
f 853/2/6 854/2/6 859/2/6
f 859/2/6 854/2/6 860/2/6
f 855/2/6 856/2/6 861/2/6
f 861/2/6 856/2/6 862/2/6
f 860/2/6 861/2/6 865/2/6
f 865/2/6 861/2/6 866/2/6
f 863/6/6 864/6/6 867/6/6
f 867/6/6 864/6/6 868/6/6
f 869/2/6 870/2/6 872/2/6
f 872/2/6 870/2/6 873/2/6
f 871/2/6 872/2/6 877/2/6
f 877/2/6 872/2/6 878/2/6
f 873/2/6 874/2/6 879/2/6
f 879/2/6 874/2/6 880/2/6
f 875/5/6 876/5/6 881/5/6
f 881/5/6 876/5/6 882/5/6
f 878/2/6 879/2/6 883/2/6
f 883/2/6 879/2/6 884/2/6
f 885/2/6 886/2/6 888/2/6
f 888/2/6 886/2/6 889/2/6
f 887/2/6 888/2/6 891/2/6
f 891/2/6 888/2/6 892/2/6
f 889/2/6 890/2/6 893/2/6
f 893/2/6 890/2/6 894/2/6
f 892/2/6 893/2/6 895/2/6
f 895/2/6 893/2/6 896/2/6
f 897/2/6 898/2/6 899/2/6
f 899/2/6 898/2/6 900/2/6
f 899/3/6 900/3/6 901/3/6
f 901/3/6 900/3/6 902/3/6
f 899/3/6 901/3/6 903/3/6
f 903/3/6 901/3/6 904/3/6
f 901/4/6 902/4/6 905/4/6
f 904/3/6 901/3/6 905/3/6
f 902/3/6 900/3/6 906/3/6
f 905/4/6 902/4/6 906/4/6
f 899/3/6 903/3/6 907/3/6
f 907/3/6 903/3/6 908/3/6
f 904/3/6 905/3/6 909/3/6
f 905/3/6 906/3/6 909/3/6
f 909/3/6 906/3/6 910/3/6
f 910/3/6 906/3/6 911/3/6
f 911/3/6 906/3/6 912/3/6
f 908/6/6 909/6/6 913/6/6
f 913/6/6 909/6/6 914/6/6
f 910/3/6 911/3/6 915/3/6
f 915/3/6 911/3/6 916/3/6
f 912/3/6 906/3/6 917/3/6
f 917/3/6 906/3/6 918/3/6
f 899/3/6 907/3/6 919/3/6
f 910/3/6 915/3/6 920/3/6
f 920/3/6 915/3/6 921/3/6
f 916/4/6 917/4/6 922/4/6
f 922/4/6 917/4/6 923/4/6
f 918/3/6 906/3/6 924/3/6
f 920/3/6 921/3/6 925/3/6
f 919/3/6 920/3/6 925/3/6
f 921/3/6 922/3/6 925/3/6
f 923/3/6 924/3/6 926/3/6
f 919/3/6 925/3/6 927/3/6
f 925/3/6 926/3/6 927/3/6
f 927/3/6 926/3/6 928/3/6
f 919/3/6 927/3/6 929/3/6
f 929/3/6 927/3/6 930/3/6
f 928/3/6 926/3/6 931/3/6
f 931/3/6 926/3/6 932/3/6
f 919/3/6 929/3/6 933/3/6
f 930/4/6 931/4/6 934/4/6
f 934/4/6 931/4/6 935/4/6
f 932/3/6 926/3/6 936/3/6
f 933/3/6 934/3/6 937/3/6
f 935/3/6 936/3/6 938/3/6
f 926/3/6 924/3/6 939/3/6
f 936/3/6 926/3/6 939/3/6
f 938/3/6 936/3/6 939/3/6
f 924/3/6 906/3/6 940/3/6
f 939/3/6 924/3/6 940/3/6
f 937/3/6 938/3/6 941/3/6
f 938/3/6 939/3/6 941/3/6
f 941/3/6 939/3/6 942/3/6
f 940/3/6 906/3/6 943/3/6
f 943/3/6 906/3/6 944/3/6
f 937/3/6 941/3/6 945/3/6
f 942/6/6 943/6/6 946/6/6
f 946/6/6 943/6/6 947/6/6
f 944/3/6 906/3/6 948/3/6
f 945/3/6 946/3/6 949/3/6
f 947/3/6 948/3/6 950/3/6
f 945/3/6 949/3/6 951/3/6
f 949/3/6 950/3/6 951/3/6
f 899/3/6 919/3/6 951/3/6
f 933/3/6 937/3/6 951/3/6
f 919/3/6 933/3/6 951/3/6
f 937/3/6 945/3/6 951/3/6
f 900/2/6 898/2/6 952/2/6
f 951/3/6 950/3/6 952/3/6
f 950/3/6 948/3/6 952/3/6
f 906/3/6 900/3/6 952/3/6
f 948/3/6 906/3/6 952/3/6
f 951/2/6 952/2/6 953/2/6
f 952/2/6 898/2/6 954/2/6
f 953/2/6 952/2/6 954/2/6
